…
 

 

Number of movies from the dataset, made by each **director** inside in the dataset:

``` r
movies %>%
  group_by (director) %>%
  summarise (count = n() ) %>%
  arrange (desc(count))
```

    ## # A tibble: 533 x 2
    ##    director        count
    ##    <chr>           <int>
    ##  1 James Ivory         4
    ##  2 Martin Scorsese     4
    ##  3 Oliver Stone        4
    ##  4 Renny Harlin        4
    ##  5 Woody Allen         4
    ##  6 Antoine Fuqua       3
    ##  7 Brian DePalma       3
    ##  8 Dennis Dugan        3
    ##  9 Howard Zieff        3
    ## 10 John McTiernan      3
    ## # ... with 523 more rows
…
